<?xml version="1.0" encoding="UTF-8" standalone="no"?>
<svg
   xmlns:dc="http://purl.org/dc/elements/1.1/"
   xmlns:cc="http://creativecommons.org/ns#"
   xmlns:rdf="http://www.w3.org/1999/02/22-rdf-syntax-ns#"
   xmlns:svg="http://www.w3.org/2000/svg"
   xmlns="http://www.w3.org/2000/svg"
   viewBox="0 0 444.46401 113.86666"
   height="113.86666"
   width="444.46399"
   xml:space="preserve"
   id="svg2"
   version="1.1"><metadata
     id="metadata8"><rdf:RDF><cc:Work
         rdf:about=""><dc:format>image/svg+xml</dc:format><dc:type
           rdf:resource="http://purl.org/dc/dcmitype/StillImage" /></cc:Work></rdf:RDF></metadata><defs
     id="defs6" /><g
     transform="matrix(1.3333333,0,0,-1.3333333,0,460.26666)"
     id="g10"><g
       transform="scale(0.1)"
       id="g12"><path
         id="path14"
         style="fill:#ffffff;fill-opacity:1;fill-rule:nonzero;stroke:none"
         d="m 120,3000 -20,-50 h 40" /><path
         id="path16"
         style="fill:#000000;fill-opacity:1;fill-rule:nonzero;stroke:none"
         d="m 340,2700 -50,20 v -40" /><g
         transform="scale(10)"
         id="g18"><text
           id="text22"
           style="font-variant:normal;font-size:12px;font-family:'Courier New';-inkscape-font-specification:LucidaSans-Typewriter;writing-mode:lr-tb;fill:#000000;fill-opacity:1;fill-rule:nonzero;stroke:none"
           transform="matrix(1,0,0,-1,39,266)"><tspan
             id="tspan20"
             y="0"
             x="0">CLEANDEPENDENTS</tspan></text>
</g><path
         id="path24"
         style="fill:#ffffff;fill-opacity:1;fill-rule:nonzero;stroke:none"
         d="m 1520,2700 50,-20 v 40" /><path
         id="path26"
         style="fill:#000000;fill-opacity:1;fill-rule:nonzero;stroke:none"
         d="m 1740,3000 -20,-50 h 40" /><path
         id="path28"
         style="fill:#000000;fill-opacity:1;fill-rule:nonzero;stroke:none"
         d="m 628,3000 -50,20 v -40" /><g
         transform="scale(10)"
         id="g30"><text
           id="text34"
           style="font-variant:normal;font-size:12px;font-family:'Courier New';-inkscape-font-specification:LucidaSans-Typewriter;writing-mode:lr-tb;fill:#000000;fill-opacity:1;fill-rule:nonzero;stroke:none"
           transform="matrix(1,0,0,-1,67.8,296)"><tspan
             id="tspan32"
             y="0"
             x="0">CLEANUP</tspan></text>
</g><path
         id="path36"
         style="fill:#ffffff;fill-opacity:1;fill-rule:nonzero;stroke:none"
         d="m 1232,3000 50,-20 v 40" /><path
         id="path38"
         style="fill:#ffffff;fill-opacity:1;fill-rule:nonzero;stroke:none"
         d="m 120,3000 20,50 h -40" /><path
         id="path40"
         style="fill:#000000;fill-opacity:1;fill-rule:nonzero;stroke:none"
         d="m 628,3300 -50,20 v -40" /><g
         transform="scale(10)"
         id="g42"><text
           id="text46"
           style="font-variant:normal;font-size:12px;font-family:'Courier New';-inkscape-font-specification:LucidaSans-Typewriter;writing-mode:lr-tb;fill:#000000;fill-opacity:1;fill-rule:nonzero;stroke:none"
           transform="matrix(1,0,0,-1,67.8,326)"><tspan
             id="tspan44"
             y="0"
             x="0">REBUILD</tspan></text>
</g><path
         id="path48"
         style="fill:#ffffff;fill-opacity:1;fill-rule:nonzero;stroke:none"
         d="m 1232,3300 50,-20 v 40" /><path
         id="path50"
         style="fill:#000000;fill-opacity:1;fill-rule:nonzero;stroke:none"
         d="m 1740,3000 20,50 h -40" /><path
         id="path52"
         style="fill:#000000;fill-opacity:1;fill-rule:nonzero;stroke:none"
         d="m 2100,3000 -50,20 v -40" /><g
         transform="scale(10)"
         id="g54"><text
           id="text58"
           style="font-style:italic;font-variant:normal;font-size:11px;font-family:'Lucida Sans';-inkscape-font-specification:LucidaSans-Italic;writing-mode:lr-tb;fill:#d22d2d;fill-opacity:1;fill-rule:nonzero;stroke:none"
           transform="matrix(1,0,0,-1,215,296)"><tspan
             id="tspan56"
             y="0"
             x="0"><a href="https://documentation.aimms.com/language-reference/preliminaries/language-preliminaries/identifier-declarations.html#identifier">identifier</a></tspan></text>
</g><path
         id="path60"
         style="fill:#ffffff;fill-opacity:1;fill-rule:nonzero;stroke:none"
         d="m 2653.48,3000 50,-20 v 40" /><path
         id="path62"
         style="fill:#000000;fill-opacity:1;fill-rule:nonzero;stroke:none"
         d="m 1980,3000 20,50 h -40" /><path
         id="path64"
         style="fill:#ffffff;fill-opacity:1;fill-rule:nonzero;stroke:none"
         d="m 2276.74,3300 -50,20 v -40" /><g
         transform="scale(10)"
         id="g66"><text
           id="text70"
           style="font-variant:normal;font-size:12px;font-family:'Courier New';-inkscape-font-specification:LucidaSans-Typewriter;writing-mode:lr-tb;fill:#000000;fill-opacity:1;fill-rule:nonzero;stroke:none"
           transform="matrix(1,0,0,-1,234.074,326)"><tspan
             id="tspan68"
             y="0"
             x="0">,</tspan></text>
</g><path
         id="path72"
         style="fill:#000000;fill-opacity:1;fill-rule:nonzero;stroke:none"
         d="m 2476.74,3300 50,-20 v 40" /><path
         id="path74"
         style="fill:#ffffff;fill-opacity:1;fill-rule:nonzero;stroke:none"
         d="m 2773.48,3000 20,50 h -40" /><path
         id="path76"
         style="fill:#ffffff;fill-opacity:1;fill-rule:nonzero;stroke:none"
         d="m 1860,3000 20,50 h -40" /><path
         id="path78"
         style="fill:#000000;fill-opacity:1;fill-rule:nonzero;stroke:none"
         d="m 2893.48,3000 20,50 h -40" /><path
         id="path80"
         style="fill:#000000;fill-opacity:1;fill-rule:nonzero;stroke:none"
         d="m 3013.48,3000 -50,20 v -40" /><g
         transform="scale(10)"
         id="g82"><text
           id="text86"
           style="font-variant:normal;font-size:12px;font-family:'Courier New';-inkscape-font-specification:LucidaSans-Typewriter;writing-mode:lr-tb;fill:#000000;fill-opacity:1;fill-rule:nonzero;stroke:none"
           transform="matrix(1,0,0,-1,307.748,296)"><tspan
             id="tspan84"
             y="0"
             x="0">;</tspan></text>
</g><path
         id="path88"
         style="fill:#ffffff;fill-opacity:1;fill-rule:nonzero;stroke:none"
         d="m 3213.48,3000 50,-20 v 40" /><path
         id="path90"
         style="fill:#000000;fill-opacity:1;fill-rule:nonzero;stroke:none"
         d="m 3333.48,3000 -50,20 v -40" /><path
         id="path92"
         style="fill:none;stroke:#000000;stroke-width:4;stroke-linecap:butt;stroke-linejoin:round;stroke-miterlimit:10;stroke-dasharray:none;stroke-opacity:1"
         d="m 0,3000 h 120 m 0,0 v -200 c 0,-55.23 44.773,-100 100,-100 v 0 h 120 v 0 c 0,55.23 44.773,100 100,100 h 980 c 55.23,0 100,-44.77 100,-100 v 0 0 c 0,-55.23 -44.77,-100 -100,-100 H 440 c -55.227,0 -100,44.77 -100,100 v 0 m 1180,0 h 120 v 0 c 55.23,0 100,44.77 100,100 v 200 m -1620,0 h 100 288 120 v 0 c 0,55.23 44.773,100 100,100 h 404 c 55.23,0 100,-44.77 100,-100 v 0 0 c 0,-55.23 -44.77,-100 -100,-100 H 728 c -55.227,0 -100,44.77 -100,100 v 0 m 604,0 h 120 388 m -1620,0 v 200 c 0,55.23 44.773,100 100,100 h 288 120 v 0 c 0,55.23 44.773,100 100,100 h 404 c 55.23,0 100,-44.77 100,-100 v 0 0 c 0,-55.23 -44.77,-100 -100,-100 H 728 c -55.227,0 -100,44.77 -100,100 v 0 m 604,0 h 120 288 c 55.23,0 100,-44.77 100,-100 v -200 h 120 m 0,0 v 0 h 120 m 0,0 v 0 h 120 v 100 h 553.46 V 3000 2900 H 2100 v 100 m 553.48,0 h 120 m -793.48,0 v 200 c 0,55.23 44.77,100 100,100 h 76.74 120 v 0 c 0,55.23 44.77,100 100,100 v 0 c 55.22,0 100,-44.77 100,-100 v 0 0 c 0,-55.23 -44.78,-100 -100,-100 v 0 c -55.23,0 -100,44.77 -100,100 v 0 m 200,0 h 120 76.74 c 55.23,0 100,-44.77 100,-100 v -200 h 120 M 1860,3000 v 350 c 0,55.23 44.77,100 100,100 h 356.74 120 356.74 c 55.22,0 100,-44.77 100,-100 v -350 h 120 v 0 c 0,55.23 44.77,100 100,100 v 0 c 55.22,0 100,-44.77 100,-100 v 0 0 c 0,-55.23 -44.78,-100 -100,-100 v 0 c -55.23,0 -100,44.77 -100,100 v 0 m 200,0 h 120" /></g></g></svg>