<?xml version="1.0" encoding="UTF-8" standalone="no"?>
<svg
   xmlns:dc="http://purl.org/dc/elements/1.1/"
   xmlns:cc="http://creativecommons.org/ns#"
   xmlns:rdf="http://www.w3.org/1999/02/22-rdf-syntax-ns#"
   xmlns:svg="http://www.w3.org/2000/svg"
   xmlns="http://www.w3.org/2000/svg"
   viewBox="0 0 242.704 227.2"
   height="227.2"
   width="242.70399"
   xml:space="preserve"
   id="svg2"
   version="1.1"><metadata
     id="metadata8"><rdf:RDF><cc:Work
         rdf:about=""><dc:format>image/svg+xml</dc:format><dc:type
           rdf:resource="http://purl.org/dc/dcmitype/StillImage" /></cc:Work></rdf:RDF></metadata><defs
     id="defs6" /><g
     transform="matrix(1.3333333,0,0,-1.3333333,0,1480.2666)"
     id="g10"><g
       transform="scale(0.1)"
       id="g12"><path
         id="path14"
         style="fill:#ffffff;fill-opacity:1;fill-rule:nonzero;stroke:none"
         d="m 120,11000 -20,-50 h 40" /><path
         id="path16"
         style="fill:#000000;fill-opacity:1;fill-rule:nonzero;stroke:none"
         d="m 340,10100 -50,20 v -40" /><g
         transform="scale(10)"
         id="g18"><text
           id="text22"
           style="font-style:italic;font-variant:normal;font-size:11px;font-family:'Lucida Sans';-inkscape-font-specification:LucidaSans-Italic;writing-mode:lr-tb;fill:#d22d2d;fill-opacity:1;fill-rule:nonzero;stroke:none"
           transform="matrix(1,0,0,-1,39,1006)"><tspan
             id="tspan20"
             y="0"
             x="0"><a href="https://documentation.aimms.com/language-reference/non-procedural-language-components/set-set-element-and-string-expressions/set-expressions.html#iterative-expression">iterative-expression</a></tspan></text>
</g><path
         id="path24"
         style="fill:#ffffff;fill-opacity:1;fill-rule:nonzero;stroke:none"
         d="m 1480.28,10100 50,-20 v 40" /><path
         id="path26"
         style="fill:#000000;fill-opacity:1;fill-rule:nonzero;stroke:none"
         d="m 1700.28,11000 -20,-50 h 40" /><path
         id="path28"
         style="fill:#ffffff;fill-opacity:1;fill-rule:nonzero;stroke:none"
         d="m 120,11000 -20,-50 h 40" /><path
         id="path30"
         style="fill:#000000;fill-opacity:1;fill-rule:nonzero;stroke:none"
         d="m 540.043,10400 -50,20 v -40" /><g
         transform="scale(10)"
         id="g32"><text
           id="text36"
           style="font-style:italic;font-variant:normal;font-size:11px;font-family:'Lucida Sans';-inkscape-font-specification:LucidaSans-Italic;writing-mode:lr-tb;fill:#d22d2d;fill-opacity:1;fill-rule:nonzero;stroke:none"
           transform="matrix(1,0,0,-1,59.0039,1036)"><tspan
             id="tspan34"
             y="0"
             x="0"><a href="https://documentation.aimms.com/language-reference/procedural-language-components/procedures-and-functions/calls-to-procedures-and-functions.html#function-call">function-call</a></tspan></text>
</g><path
         id="path38"
         style="fill:#ffffff;fill-opacity:1;fill-rule:nonzero;stroke:none"
         d="m 1280.24,10400 50,-20 v 40" /><path
         id="path40"
         style="fill:#000000;fill-opacity:1;fill-rule:nonzero;stroke:none"
         d="m 1700.28,11000 -20,-50 h 40" /><path
         id="path42"
         style="fill:#000000;fill-opacity:1;fill-rule:nonzero;stroke:none"
         d="m 443.258,11000 -50,20 v -40" /><g
         transform="scale(10)"
         id="g44"><text
           id="text48"
           style="font-style:italic;font-variant:normal;font-size:11px;font-family:'Lucida Sans';-inkscape-font-specification:LucidaSans-Italic;writing-mode:lr-tb;fill:#d22d2d;fill-opacity:1;fill-rule:nonzero;stroke:none"
           transform="matrix(1,0,0,-1,49.3258,1096)"><tspan
             id="tspan46"
             y="0"
             x="0"><a href="https://documentation.aimms.com/language-reference/preliminaries/language-preliminaries/lexical-conventions.html#quoted-element">quoted-element</a></tspan></text>
</g><path
         id="path50"
         style="fill:#ffffff;fill-opacity:1;fill-rule:nonzero;stroke:none"
         d="m 1377.02,11000 50,-20 v 40" /><path
         id="path52"
         style="fill:#ffffff;fill-opacity:1;fill-rule:nonzero;stroke:none"
         d="m 120,11000 -20,-50 h 40" /><path
         id="path54"
         style="fill:#000000;fill-opacity:1;fill-rule:nonzero;stroke:none"
         d="m 373.301,10700 -50,20 v -40" /><g
         transform="scale(10)"
         id="g56"><text
           id="text60"
           style="font-style:italic;font-variant:normal;font-size:11px;font-family:'Lucida Sans';-inkscape-font-specification:LucidaSans-Italic;writing-mode:lr-tb;fill:#d22d2d;fill-opacity:1;fill-rule:nonzero;stroke:none"
           transform="matrix(1,0,0,-1,42.3301,1066)"><tspan
             id="tspan58"
             y="0"
             x="0">element-reference</tspan></text>
</g><path
         id="path62"
         style="fill:#ffffff;fill-opacity:1;fill-rule:nonzero;stroke:none"
         d="m 1446.98,10700 50,-20 v 40" /><path
         id="path64"
         style="fill:#000000;fill-opacity:1;fill-rule:nonzero;stroke:none"
         d="m 1700.28,11000 -20,-50 h 40" /><path
         id="path66"
         style="fill:#ffffff;fill-opacity:1;fill-rule:nonzero;stroke:none"
         d="m 120,11000 -20,-50 h 40" /><path
         id="path68"
         style="fill:#000000;fill-opacity:1;fill-rule:nonzero;stroke:none"
         d="m 446.68,9500 -50,20 v -40" /><g
         transform="scale(10)"
         id="g70"><text
           id="text74"
           style="font-style:italic;font-variant:normal;font-size:11px;font-family:'Lucida Sans';-inkscape-font-specification:LucidaSans-Italic;writing-mode:lr-tb;fill:#d22d2d;fill-opacity:1;fill-rule:nonzero;stroke:none"
           transform="matrix(1,0,0,-1,49.668,946)"><tspan
             id="tspan72"
             y="0"
             x="0"><a href="https://documentation.aimms.com/language-reference/non-procedural-language-components/numerical-and-logical-expressions/numerical-expressions.html#enumerated-list">enumerated-list</a></tspan></text>
</g><path
         id="path76"
         style="fill:#ffffff;fill-opacity:1;fill-rule:nonzero;stroke:none"
         d="m 1373.6,9500 50,-20 v 40" /><path
         id="path78"
         style="fill:#000000;fill-opacity:1;fill-rule:nonzero;stroke:none"
         d="m 1700.28,11000 -20,-50 h 40" /><path
         id="path80"
         style="fill:#ffffff;fill-opacity:1;fill-rule:nonzero;stroke:none"
         d="m 120,11000 -20,-50 h 40" /><path
         id="path82"
         style="fill:#000000;fill-opacity:1;fill-rule:nonzero;stroke:none"
         d="m 326.621,9800 -50,20 v -40" /><g
         transform="scale(10)"
         id="g84"><text
           id="text88"
           style="font-style:italic;font-variant:normal;font-size:11px;font-family:'Lucida Sans';-inkscape-font-specification:LucidaSans-Italic;writing-mode:lr-tb;fill:#d22d2d;fill-opacity:1;fill-rule:nonzero;stroke:none"
           transform="matrix(1,0,0,-1,37.6621,976)"><tspan
             id="tspan86"
             y="0"
             x="0"><a href="https://documentation.aimms.com/language-reference/non-procedural-language-components/numerical-and-logical-expressions/numerical-expressions.html#operator-expression">operator-expression</a></tspan></text>
</g><path
         id="path90"
         style="fill:#ffffff;fill-opacity:1;fill-rule:nonzero;stroke:none"
         d="m 1493.66,9800 50,-20 v 40" /><path
         id="path92"
         style="fill:#000000;fill-opacity:1;fill-rule:nonzero;stroke:none"
         d="m 1700.28,11000 -20,-50 h 40" /><path
         id="path94"
         style="fill:#000000;fill-opacity:1;fill-rule:nonzero;stroke:none"
         d="m 1820.28,11000 -50,20 v -40" /><path
         id="path96"
         style="fill:none;stroke:#000000;stroke-width:4;stroke-linecap:butt;stroke-linejoin:round;stroke-miterlimit:10;stroke-dasharray:none;stroke-opacity:1"
         d="m 0,11000 h 120 m 0,0 v -800 c 0,-55.2 44.773,-100 100,-100 v 0 h 120 v 100 h 1140.25 v -100 -100 H 340 v 100 m 1140.28,0 h 120 v 0 c 55.23,0 100,44.8 100,100 v 800 M 120,11000 v -500 c 0,-55.2 44.773,-100 100,-100 h 200.039 120 v 100 h 740.181 v -100 -100 H 540.039 v 100 m 740.201,0 h 120 200.04 c 55.23,0 100,44.8 100,100 v 500 M 120,11000 h 100 103.258 120 v 100 H 1377 v -100 -100 H 443.258 v 100 m 933.762,0 h 120 203.26 M 120,11000 v -200 c 0,-55.2 44.773,-100 100,-100 h 33.301 120 v 100 H 1446.95 v -100 -100 H 373.301 v 100 m 1073.679,0 h 120 33.3 c 55.23,0 100,44.8 100,100 v 200 M 120,11000 V 9600 c 0,-55.23 44.773,-100 100,-100 h 106.68 120 v 100 h 926.89 V 9500 9400 H 446.68 v 100 m 926.92,0 h 120 106.68 c 55.23,0 100,44.77 100,100 v 1400 M 120,11000 V 9900 c 0,-55.23 44.773,-100 100,-100 h -13.379 120 v 100 H 1493.63 V 9800 9700 H 326.621 v 100 m 1167.039,0 h 120 -13.38 c 55.23,0 100,44.77 100,100 v 1100 h 120" /></g></g></svg>