<?xml version="1.0" encoding="UTF-8" standalone="no"?>
<svg
   xmlns:dc="http://purl.org/dc/elements/1.1/"
   xmlns:cc="http://creativecommons.org/ns#"
   xmlns:rdf="http://www.w3.org/1999/02/22-rdf-syntax-ns#"
   xmlns:svg="http://www.w3.org/2000/svg"
   xmlns="http://www.w3.org/2000/svg"
   viewBox="0 0 575.70669 80.533333"
   height="80.533333"
   width="575.70667"
   xml:space="preserve"
   id="svg2"
   version="1.1"><metadata
     id="metadata8"><rdf:RDF><cc:Work
         rdf:about=""><dc:format>image/svg+xml</dc:format><dc:type
           rdf:resource="http://purl.org/dc/dcmitype/StillImage" /></cc:Work></rdf:RDF></metadata><defs
     id="defs6" /><g
     transform="matrix(1.3333333,0,0,-1.3333333,0,306.93333)"
     id="g10"><g
       transform="scale(0.1)"
       id="g12"><path
         id="path14"
         style="fill:#000000;fill-opacity:1;fill-rule:nonzero;stroke:none"
         d="m 80,2000 -50,20 v -40" /><g
         transform="scale(10)"
         id="g16"><text
           id="text20"
           style="font-variant:normal;font-size:12px;font-family:'Courier New';-inkscape-font-specification:LucidaSans-Typewriter;writing-mode:lr-tb;fill:#000000;fill-opacity:1;fill-rule:nonzero;stroke:none"
           transform="matrix(1,0,0,-1,13,196)"><tspan
             id="tspan18"
             y="0"
             x="0">HALT</tspan></text>
</g><path
         id="path22"
         style="fill:#ffffff;fill-opacity:1;fill-rule:nonzero;stroke:none"
         d="m 468,2000 50,-20 v 40" /><path
         id="path24"
         style="fill:#000000;fill-opacity:1;fill-rule:nonzero;stroke:none"
         d="m 628,2000 -50,20 v -40" /><g
         transform="scale(10)"
         id="g26"><text
           id="text30"
           style="font-variant:normal;font-size:12px;font-family:'Courier New';-inkscape-font-specification:LucidaSans-Typewriter;writing-mode:lr-tb;fill:#000000;fill-opacity:1;fill-rule:nonzero;stroke:none"
           transform="matrix(1,0,0,-1,67.8,196)"><tspan
             id="tspan28"
             y="0"
             x="0">WITH</tspan></text>
</g><path
         id="path32"
         style="fill:#ffffff;fill-opacity:1;fill-rule:nonzero;stroke:none"
         d="m 1016,2000 50,-20 v 40" /><path
         id="path34"
         style="fill:#000000;fill-opacity:1;fill-rule:nonzero;stroke:none"
         d="m 1096,2000 -50,20 v -40" /><g
         transform="scale(10)"
         id="g36"><text
           id="text40"
           style="font-style:italic;font-variant:normal;font-size:11px;font-family:'Lucida Sans';-inkscape-font-specification:LucidaSans-Italic;writing-mode:lr-tb;fill:#d22d2d;fill-opacity:1;fill-rule:nonzero;stroke:none"
           transform="matrix(1,0,0,-1,114.6,196)"><tspan
             id="tspan38"
             y="0"
             x="0"><a href="https://documentation.aimms.com/language-reference/non-procedural-language-components/set-set-element-and-string-expressions/string-expressions.html#string-expression">string-expression</a></tspan></text>
</g><path
         id="path42"
         style="fill:#ffffff;fill-opacity:1;fill-rule:nonzero;stroke:none"
         d="m 2109.56,2000 50,-20 v 40" /><path
         id="path44"
         style="fill:#ffffff;fill-opacity:1;fill-rule:nonzero;stroke:none"
         d="m 548,2000 20,50 h -40" /><path
         id="path46"
         style="fill:#000000;fill-opacity:1;fill-rule:nonzero;stroke:none"
         d="m 2189.56,2000 20,50 h -40" /><path
         id="path48"
         style="fill:#000000;fill-opacity:1;fill-rule:nonzero;stroke:none"
         d="m 2349.56,2000 -50,20 v -40" /><g
         transform="scale(10)"
         id="g50"><text
           id="text54"
           style="font-variant:normal;font-size:12px;font-family:'Courier New';-inkscape-font-specification:LucidaSans-Typewriter;writing-mode:lr-tb;fill:#000000;fill-opacity:1;fill-rule:nonzero;stroke:none"
           transform="matrix(1,0,0,-1,239.956,196)"><tspan
             id="tspan52"
             y="0"
             x="0">WHEN</tspan></text>
</g><path
         id="path56"
         style="fill:#ffffff;fill-opacity:1;fill-rule:nonzero;stroke:none"
         d="m 2737.56,2000 50,-20 v 40" /><path
         id="path58"
         style="fill:#000000;fill-opacity:1;fill-rule:nonzero;stroke:none"
         d="m 2817.56,2000 -50,20 v -40" /><g
         transform="scale(10)"
         id="g60"><text
           id="text64"
           style="font-style:italic;font-variant:normal;font-size:11px;font-family:'Lucida Sans';-inkscape-font-specification:LucidaSans-Italic;writing-mode:lr-tb;fill:#d22d2d;fill-opacity:1;fill-rule:nonzero;stroke:none"
           transform="matrix(1,0,0,-1,286.756,196)"><tspan
             id="tspan62"
             y="0"
             x="0"><a href="https://documentation.aimms.com/language-reference/non-procedural-language-components/numerical-and-logical-expressions/logical-expressions.html#logical-expression">logical-expression</a></tspan></text>
</g><path
         id="path66"
         style="fill:#ffffff;fill-opacity:1;fill-rule:nonzero;stroke:none"
         d="m 3877.8,2000 50,-20 v 40" /><path
         id="path68"
         style="fill:#ffffff;fill-opacity:1;fill-rule:nonzero;stroke:none"
         d="m 2269.56,2000 -20,-50 h 40" /><path
         id="path70"
         style="fill:#000000;fill-opacity:1;fill-rule:nonzero;stroke:none"
         d="m 3957.8,2000 -20,-50 h 40" /><path
         id="path72"
         style="fill:#000000;fill-opacity:1;fill-rule:nonzero;stroke:none"
         d="m 4037.8,2000 -50,20 v -40" /><g
         transform="scale(10)"
         id="g74"><text
           id="text78"
           style="font-variant:normal;font-size:12px;font-family:'Courier New';-inkscape-font-specification:LucidaSans-Typewriter;writing-mode:lr-tb;fill:#000000;fill-opacity:1;fill-rule:nonzero;stroke:none"
           transform="matrix(1,0,0,-1,410.18,196)"><tspan
             id="tspan76"
             y="0"
             x="0">;</tspan></text>
</g><path
         id="path80"
         style="fill:#ffffff;fill-opacity:1;fill-rule:nonzero;stroke:none"
         d="m 4237.8,2000 50,-20 v 40" /><path
         id="path82"
         style="fill:#000000;fill-opacity:1;fill-rule:nonzero;stroke:none"
         d="m 4317.8,2000 -50,20 v -40" /><path
         id="path84"
         style="fill:none;stroke:#000000;stroke-width:4;stroke-linecap:butt;stroke-linejoin:round;stroke-miterlimit:10;stroke-dasharray:none;stroke-opacity:1"
         d="m 0,2000 h 80 v 0 c 0,55.23 44.773,100 100,100 h 188 c 55.227,0 100,-44.77 100,-100 v 0 0 c 0,-55.23 -44.773,-100 -100,-100 H 180 c -55.227,0 -100,44.77 -100,100 v 0 m 388,0 h 80 m 0,0 v 0 h 80 v 0 c 0,55.23 44.773,100 100,100 h 188 c 55.227,0 100,-44.77 100,-100 v 0 0 c 0,-55.23 -44.773,-100 -100,-100 H 728 c -55.227,0 -100,44.77 -100,100 v 0 m 388,0 h 80 v 100 H 2109.54 V 2000 1900 H 1096 v 100 m 1013.56,0 h 80 M 548,2000 v 200 c 0,55.23 44.773,100 100,100 h 680.78 80 680.78 c 55.23,0 100,-44.77 100,-100 v -200 h 80 m 0,0 v 0 h 80 v 0 c 0,55.23 44.77,100 100,100 h 188 c 55.23,0 100,-44.77 100,-100 v 0 0 c 0,-55.23 -44.77,-100 -100,-100 h -188 c -55.23,0 -100,44.77 -100,100 v 0 m 388,0 h 80 v 100 H 3877.77 V 2000 1900 H 2817.56 v 100 m 1060.24,0 h 80 m -1688.24,0 v -200 c 0,-55.23 44.77,-100 100,-100 h 704.12 80 704.12 c 55.22,0 100,44.77 100,100 v 200 h 80 v 0 c 0,55.23 44.77,100 100,100 v 0 c 55.22,0 100,-44.77 100,-100 v 0 0 c 0,-55.23 -44.78,-100 -100,-100 v 0 c -55.23,0 -100,44.77 -100,100 v 0 m 200,0 h 80" /></g></g></svg>