<?xml version="1.0" encoding="UTF-8" standalone="no"?>
<svg
   xmlns:dc="http://purl.org/dc/elements/1.1/"
   xmlns:cc="http://creativecommons.org/ns#"
   xmlns:rdf="http://www.w3.org/1999/02/22-rdf-syntax-ns#"
   xmlns:svg="http://www.w3.org/2000/svg"
   xmlns="http://www.w3.org/2000/svg"
   viewBox="0 0 572.65603 193.86666"
   height="193.86667"
   width="572.65601"
   xml:space="preserve"
   id="svg2"
   version="1.1"><metadata
     id="metadata8"><rdf:RDF><cc:Work
         rdf:about=""><dc:format>image/svg+xml</dc:format><dc:type
           rdf:resource="http://purl.org/dc/dcmitype/StillImage" /></cc:Work></rdf:RDF></metadata><defs
     id="defs6" /><g
     transform="matrix(1.3333333,0,0,-1.3333333,0,806.93331)"
     id="g10"><g
       transform="scale(0.1)"
       id="g12"><path
         id="path14"
         style="fill:#000000;fill-opacity:1;fill-rule:nonzero;stroke:none"
         d="m 120,5500 -50,20 v -40" /><g
         transform="scale(10)"
         id="g16"><text
           id="text20"
           style="font-variant:normal;font-size:12px;font-family:'Courier New';-inkscape-font-specification:LucidaSans-Typewriter;writing-mode:lr-tb;fill:#000000;fill-opacity:1;fill-rule:nonzero;stroke:none"
           transform="matrix(1,0,0,-1,17,546)"><tspan
             id="tspan18"
             y="0"
             x="0">IF</tspan></text>
</g><path
         id="path22"
         style="fill:#ffffff;fill-opacity:1;fill-rule:nonzero;stroke:none"
         d="m 364,5500 50,-20 v 40" /><path
         id="path24"
         style="fill:#000000;fill-opacity:1;fill-rule:nonzero;stroke:none"
         d="m 604,5500 -50,20 v -40" /><g
         transform="scale(10)"
         id="g26"><text
           id="text30"
           style="font-style:italic;font-variant:normal;font-size:11px;font-family:'Lucida Sans';-inkscape-font-specification:LucidaSans-Italic;writing-mode:lr-tb;fill:#d22d2d;fill-opacity:1;fill-rule:nonzero;stroke:none"
           transform="matrix(1,0,0,-1,65.4,546)"><tspan
             id="tspan28"
             y="0"
             x="0"><a href="https://documentation.aimms.com/language-reference/non-procedural-language-components/numerical-and-logical-expressions/logical-expressions.html#logical-expression">logical-expression</a></tspan></text>
</g><path
         id="path32"
         style="fill:#ffffff;fill-opacity:1;fill-rule:nonzero;stroke:none"
         d="m 1664.24,5500 50,-20 v 40" /><path
         id="path34"
         style="fill:#000000;fill-opacity:1;fill-rule:nonzero;stroke:none"
         d="m 1784.24,5500 -50,20 v -40" /><g
         transform="scale(10)"
         id="g36"><text
           id="text40"
           style="font-variant:normal;font-size:12px;font-family:'Courier New';-inkscape-font-specification:LucidaSans-Typewriter;writing-mode:lr-tb;fill:#000000;fill-opacity:1;fill-rule:nonzero;stroke:none"
           transform="matrix(1,0,0,-1,183.424,546)"><tspan
             id="tspan38"
             y="0"
             x="0">THEN</tspan></text>
</g><path
         id="path42"
         style="fill:#ffffff;fill-opacity:1;fill-rule:nonzero;stroke:none"
         d="m 2172.24,5500 50,-20 v 40" /><path
         id="path44"
         style="fill:#000000;fill-opacity:1;fill-rule:nonzero;stroke:none"
         d="m 2372.24,5500 -50,20 v -40" /><g
         transform="scale(10)"
         id="g46"><text
           id="text50"
           style="font-style:italic;font-variant:normal;font-size:11px;font-family:'Lucida Sans';-inkscape-font-specification:LucidaSans-Italic;writing-mode:lr-tb;fill:#d22d2d;fill-opacity:1;fill-rule:nonzero;stroke:none"
           transform="matrix(1,0,0,-1,242.224,546)"><tspan
             id="tspan48"
             y="0"
             x="0"><a href="https://documentation.aimms.com/language-reference/procedural-language-components/execution-statements/procedural-and-nonprocedural-execution.html#statement">statement</a></tspan></text>
</g><path
         id="path52"
         style="fill:#ffffff;fill-opacity:1;fill-rule:nonzero;stroke:none"
         d="m 2999.16,5500 50,-20 v 40" /><path
         id="path54"
         style="fill:#000000;fill-opacity:1;fill-rule:nonzero;stroke:none"
         d="m 2292.24,5500 20,50 h -40" /><path
         id="path56"
         style="fill:#ffffff;fill-opacity:1;fill-rule:nonzero;stroke:none"
         d="m 3079.16,5500 20,50 h -40" /><path
         id="path58"
         style="fill:#000000;fill-opacity:1;fill-rule:nonzero;stroke:none"
         d="m 484,5500 20,50 h -40" /><path
         id="path60"
         style="fill:#ffffff;fill-opacity:1;fill-rule:nonzero;stroke:none"
         d="m 1575.58,5950 -50,20 v -40" /><g
         transform="scale(10)"
         id="g62"><text
           id="text66"
           style="font-variant:normal;font-size:12px;font-family:'Courier New';-inkscape-font-specification:LucidaSans-Typewriter;writing-mode:lr-tb;fill:#000000;fill-opacity:1;fill-rule:nonzero;stroke:none"
           transform="matrix(1,0,0,-1,162.558,591)"><tspan
             id="tspan64"
             y="0"
             x="0">ELSEIF</tspan></text>
</g><path
         id="path68"
         style="fill:#000000;fill-opacity:1;fill-rule:nonzero;stroke:none"
         d="m 2107.58,5950 50,-20 v 40" /><path
         id="path70"
         style="fill:#ffffff;fill-opacity:1;fill-rule:nonzero;stroke:none"
         d="m 3199.16,5500 20,50 h -40" /><path
         id="path72"
         style="fill:none;stroke:#000000;stroke-width:4;stroke-linecap:butt;stroke-linejoin:round;stroke-miterlimit:10;stroke-dasharray:40, 20;stroke-dashoffset:0;stroke-opacity:1"
         d="m 3319.16,5500 h 240" /><path
         id="path74"
         style="fill:none;stroke:#000000;stroke-width:4;stroke-linecap:butt;stroke-linejoin:round;stroke-miterlimit:10;stroke-dasharray:40, 20;stroke-dashoffset:0;stroke-opacity:1"
         d="m 1500,4900 h 240" /><path
         id="path76"
         style="fill:#000000;fill-opacity:1;fill-rule:nonzero;stroke:none"
         d="m 1940,4900 -50,20 v -40" /><g
         transform="scale(10)"
         id="g78"><text
           id="text82"
           style="font-variant:normal;font-size:12px;font-family:'Courier New';-inkscape-font-specification:LucidaSans-Typewriter;writing-mode:lr-tb;fill:#000000;fill-opacity:1;fill-rule:nonzero;stroke:none"
           transform="matrix(1,0,0,-1,199,486)"><tspan
             id="tspan80"
             y="0"
             x="0">ELSE</tspan></text>
</g><path
         id="path84"
         style="fill:#ffffff;fill-opacity:1;fill-rule:nonzero;stroke:none"
         d="m 2328,4900 50,-20 v 40" /><path
         id="path86"
         style="fill:#000000;fill-opacity:1;fill-rule:nonzero;stroke:none"
         d="m 2488,4900 -50,20 v -40" /><g
         transform="scale(10)"
         id="g88"><text
           id="text92"
           style="font-style:italic;font-variant:normal;font-size:11px;font-family:'Lucida Sans';-inkscape-font-specification:LucidaSans-Italic;writing-mode:lr-tb;fill:#d22d2d;fill-opacity:1;fill-rule:nonzero;stroke:none"
           transform="matrix(1,0,0,-1,253.8,486)"><tspan
             id="tspan90"
             y="0"
             x="0"><a href="https://documentation.aimms.com/language-reference/procedural-language-components/execution-statements/procedural-and-nonprocedural-execution.html#statement">statement</a></tspan></text>
</g><path
         id="path94"
         style="fill:#ffffff;fill-opacity:1;fill-rule:nonzero;stroke:none"
         d="m 3114.92,4900 50,-20 v 40" /><path
         id="path96"
         style="fill:#000000;fill-opacity:1;fill-rule:nonzero;stroke:none"
         d="m 2408,4900 20,50 h -40" /><path
         id="path98"
         style="fill:#ffffff;fill-opacity:1;fill-rule:nonzero;stroke:none"
         d="m 3194.92,4900 20,50 h -40" /><path
         id="path100"
         style="fill:#ffffff;fill-opacity:1;fill-rule:nonzero;stroke:none"
         d="m 1860,4900 -20,-50 h 40" /><path
         id="path102"
         style="fill:#000000;fill-opacity:1;fill-rule:nonzero;stroke:none"
         d="m 3274.92,4900 -20,-50 h 40" /><path
         id="path104"
         style="fill:#000000;fill-opacity:1;fill-rule:nonzero;stroke:none"
         d="m 3394.92,4900 -50,20 v -40" /><g
         transform="scale(10)"
         id="g106"><text
           id="text110"
           style="font-variant:normal;font-size:12px;font-family:'Courier New';-inkscape-font-specification:LucidaSans-Typewriter;writing-mode:lr-tb;fill:#000000;fill-opacity:1;fill-rule:nonzero;stroke:none"
           transform="matrix(1,0,0,-1,344.492,486)"><tspan
             id="tspan108"
             y="0"
             x="0">ENDIF</tspan></text>
</g><path
         id="path112"
         style="fill:#ffffff;fill-opacity:1;fill-rule:nonzero;stroke:none"
         d="m 3854.92,4900 50,-20 v 40" /><path
         id="path114"
         style="fill:#000000;fill-opacity:1;fill-rule:nonzero;stroke:none"
         d="m 3974.92,4900 -50,20 v -40" /><g
         transform="scale(10)"
         id="g116"><text
           id="text120"
           style="font-variant:normal;font-size:12px;font-family:'Courier New';-inkscape-font-specification:LucidaSans-Typewriter;writing-mode:lr-tb;fill:#000000;fill-opacity:1;fill-rule:nonzero;stroke:none"
           transform="matrix(1,0,0,-1,403.892,486)"><tspan
             id="tspan118"
             y="0"
             x="0">;</tspan></text>
</g><path
         id="path122"
         style="fill:#ffffff;fill-opacity:1;fill-rule:nonzero;stroke:none"
         d="m 4174.92,4900 50,-20 v 40" /><path
         id="path124"
         style="fill:#000000;fill-opacity:1;fill-rule:nonzero;stroke:none"
         d="m 4294.92,4900 -50,20 v -40" /><path
         id="path126"
         style="fill:none;stroke:#000000;stroke-width:4;stroke-linecap:butt;stroke-linejoin:round;stroke-miterlimit:10;stroke-dasharray:none;stroke-opacity:1"
         d="m 0,5500 h 120 v 0 c 0,55.23 44.773,100 100,100 h 44 c 55.227,0 100,-44.77 100,-100 v 0 0 c 0,-55.23 -44.773,-100 -100,-100 h -44 c -55.227,0 -100,44.77 -100,100 v 0 m 244,0 h 120 m 0,0 v 0 h 120 v 100 H 1664.21 V 5500 5400 H 604 v 100 m 1060.24,0 h 120 v 0 c 0,55.23 44.77,100 100,100 h 188 c 55.22,0 100,-44.77 100,-100 v 0 0 c 0,-55.23 -44.78,-100 -100,-100 h -188 c -55.23,0 -100,44.77 -100,100 v 0 m 388,0 h 120 m 0,0 v 0 h 80 v 100 h 626.91 v -100 -100 h -626.91 v 100 m 626.92,0 h 80 m -786.92,0 v 200 c 0,55.23 44.77,100 100,100 h 253.46 80 253.46 c 55.23,0 100,-44.77 100,-100 v -200 h 120 M 484,5500 v 350 c 0,55.23 44.773,100 100,100 h 871.58 120 v 0 c 0,55.23 44.78,100 100,100 h 332 c 55.23,0 100,-44.77 100,-100 v 0 0 c 0,-55.23 -44.77,-100 -100,-100 h -332 c -55.22,0 -100,44.77 -100,100 v 0 m 532,0 h 120 871.58 c 55.23,0 100,-44.77 100,-100 v -350 h 120 M 1740,4900 h 120 m 0,0 v 0 h 80 v 0 c 0,55.23 44.77,100 100,100 h 188 c 55.23,0 100,-44.77 100,-100 v 0 0 c 0,-55.23 -44.77,-100 -100,-100 h -188 c -55.23,0 -100,44.77 -100,100 v 0 m 388,0 h 80 m 0,0 v 0 h 80 v 100 h 626.91 V 4900 4800 H 2488 v 100 m 626.92,0 h 80 m -786.92,0 v 200 c 0,55.23 44.77,100 100,100 h 253.46 80 253.46 c 55.23,0 100,-44.77 100,-100 v -200 h 80 M 1860,4900 v -200 c 0,-55.23 44.77,-100 100,-100 h 567.46 80 567.46 c 55.23,0 100,44.77 100,100 v 200 h 120 v 0 c 0,55.23 44.78,100 100,100 h 260 c 55.23,0 100,-44.77 100,-100 v 0 0 c 0,-55.23 -44.77,-100 -100,-100 h -260 c -55.22,0 -100,44.77 -100,100 v 0 m 460,0 h 120 v 0 c 0,55.23 44.78,100 100,100 v 0 c 55.23,0 100,-44.77 100,-100 v 0 0 c 0,-55.23 -44.77,-100 -100,-100 v 0 c -55.22,0 -100,44.77 -100,100 v 0 m 200,0 h 120" /></g></g></svg>