<?xml version="1.0" encoding="UTF-8" standalone="no"?>
<svg
   xmlns:dc="http://purl.org/dc/elements/1.1/"
   xmlns:cc="http://creativecommons.org/ns#"
   xmlns:rdf="http://www.w3.org/1999/02/22-rdf-syntax-ns#"
   xmlns:svg="http://www.w3.org/2000/svg"
   xmlns="http://www.w3.org/2000/svg"
   viewBox="0 0 505.09334 160.53333"
   height="160.53333"
   width="505.09332"
   xml:space="preserve"
   id="svg2"
   version="1.1"><metadata
     id="metadata8"><rdf:RDF><cc:Work
         rdf:about=""><dc:format>image/svg+xml</dc:format><dc:type
           rdf:resource="http://purl.org/dc/dcmitype/StillImage" /></cc:Work></rdf:RDF></metadata><defs
     id="defs6" /><g
     transform="matrix(1.3333333,0,0,-1.3333333,0,786.93331)"
     id="g10"><g
       transform="scale(0.1)"
       id="g12"><path
         id="path14"
         style="fill:#000000;fill-opacity:1;fill-rule:nonzero;stroke:none"
         d="m 120,5500 -50,20 v -40" /><g
         transform="scale(10)"
         id="g16"><text
           id="text20"
           style="font-variant:normal;font-size:12px;font-family:'Courier New';-inkscape-font-specification:LucidaSans-Typewriter;writing-mode:lr-tb;fill:#000000;fill-opacity:1;fill-rule:nonzero;stroke:none"
           transform="matrix(1,0,0,-1,17,546)"><tspan
             id="tspan18"
             y="0"
             x="0">IF</tspan></text>
</g><path
         id="path22"
         style="fill:#ffffff;fill-opacity:1;fill-rule:nonzero;stroke:none"
         d="m 364,5500 50,-20 v 40" /><path
         id="path24"
         style="fill:#000000;fill-opacity:1;fill-rule:nonzero;stroke:none"
         d="m 604,5500 -50,20 v -40" /><g
         transform="scale(10)"
         id="g26"><text
           id="text30"
           style="font-style:italic;font-variant:normal;font-size:11px;font-family:'Lucida Sans';-inkscape-font-specification:LucidaSans-Italic;writing-mode:lr-tb;fill:#d22d2d;fill-opacity:1;fill-rule:nonzero;stroke:none"
           transform="matrix(1,0,0,-1,65.4,546)"><tspan
             id="tspan28"
             y="0"
             x="0"><a href="https://documentation.aimms.com/language-reference/non-procedural-language-components/numerical-and-logical-expressions/logical-expressions.html#logical-expression">logical-expression</a></tspan></text>
</g><path
         id="path32"
         style="fill:#ffffff;fill-opacity:1;fill-rule:nonzero;stroke:none"
         d="m 1664.24,5500 50,-20 v 40" /><path
         id="path34"
         style="fill:#000000;fill-opacity:1;fill-rule:nonzero;stroke:none"
         d="m 1784.24,5500 -50,20 v -40" /><g
         transform="scale(10)"
         id="g36"><text
           id="text40"
           style="font-variant:normal;font-size:12px;font-family:'Courier New';-inkscape-font-specification:LucidaSans-Typewriter;writing-mode:lr-tb;fill:#000000;fill-opacity:1;fill-rule:nonzero;stroke:none"
           transform="matrix(1,0,0,-1,183.424,546)"><tspan
             id="tspan38"
             y="0"
             x="0">THEN</tspan></text>
</g><path
         id="path42"
         style="fill:#ffffff;fill-opacity:1;fill-rule:nonzero;stroke:none"
         d="m 2172.24,5500 50,-20 v 40" /><path
         id="path44"
         style="fill:#000000;fill-opacity:1;fill-rule:nonzero;stroke:none"
         d="m 2292.24,5500 -50,20 v -40" /><g
         transform="scale(10)"
         id="g46"><text
           id="text50"
           style="font-style:italic;font-variant:normal;font-size:11px;font-family:'Lucida Sans';-inkscape-font-specification:LucidaSans-Italic;writing-mode:lr-tb;fill:#d22d2d;fill-opacity:1;fill-rule:nonzero;stroke:none"
           transform="matrix(1,0,0,-1,234.224,546)"><tspan
             id="tspan48"
             y="0"
             x="0"><a href="https://documentation.aimms.com/language-reference/non-procedural-language-components/set-set-element-and-string-expressions/index.html#expression">expression</a></tspan></text>
</g><path
         id="path52"
         style="fill:#ffffff;fill-opacity:1;fill-rule:nonzero;stroke:none"
         d="m 2972.44,5500 50,-20 v 40" /><path
         id="path54"
         style="fill:#000000;fill-opacity:1;fill-rule:nonzero;stroke:none"
         d="m 484,5500 20,50 h -40" /><path
         id="path56"
         style="fill:#ffffff;fill-opacity:1;fill-rule:nonzero;stroke:none"
         d="m 1522.22,5800 -50,20 v -40" /><g
         transform="scale(10)"
         id="g58"><text
           id="text62"
           style="font-variant:normal;font-size:12px;font-family:'Courier New';-inkscape-font-specification:LucidaSans-Typewriter;writing-mode:lr-tb;fill:#000000;fill-opacity:1;fill-rule:nonzero;stroke:none"
           transform="matrix(1,0,0,-1,157.222,576)"><tspan
             id="tspan60"
             y="0"
             x="0">ELSEIF</tspan></text>
</g><path
         id="path64"
         style="fill:#000000;fill-opacity:1;fill-rule:nonzero;stroke:none"
         d="m 2054.22,5800 50,-20 v 40" /><path
         id="path66"
         style="fill:#ffffff;fill-opacity:1;fill-rule:nonzero;stroke:none"
         d="m 3092.44,5500 20,50 h -40" /><path
         id="path68"
         style="fill:none;stroke:#000000;stroke-width:4;stroke-linecap:butt;stroke-linejoin:round;stroke-miterlimit:10;stroke-dasharray:40, 20;stroke-dashoffset:0;stroke-opacity:1"
         d="m 3212.44,5500 h 240" /><path
         id="path70"
         style="fill:none;stroke:#000000;stroke-width:4;stroke-linecap:butt;stroke-linejoin:round;stroke-miterlimit:10;stroke-dasharray:40, 20;stroke-dashoffset:0;stroke-opacity:1"
         d="m 1300,5000 h 240" /><path
         id="path72"
         style="fill:#000000;fill-opacity:1;fill-rule:nonzero;stroke:none"
         d="m 1780,5000 -50,20 v -40" /><g
         transform="scale(10)"
         id="g74"><text
           id="text78"
           style="font-variant:normal;font-size:12px;font-family:'Courier New';-inkscape-font-specification:LucidaSans-Typewriter;writing-mode:lr-tb;fill:#000000;fill-opacity:1;fill-rule:nonzero;stroke:none"
           transform="matrix(1,0,0,-1,183,496)"><tspan
             id="tspan76"
             y="0"
             x="0">ELSE</tspan></text>
</g><path
         id="path80"
         style="fill:#ffffff;fill-opacity:1;fill-rule:nonzero;stroke:none"
         d="m 2168,5000 50,-20 v 40" /><path
         id="path82"
         style="fill:#000000;fill-opacity:1;fill-rule:nonzero;stroke:none"
         d="m 2288,5000 -50,20 v -40" /><g
         transform="scale(10)"
         id="g84"><text
           id="text88"
           style="font-style:italic;font-variant:normal;font-size:11px;font-family:'Lucida Sans';-inkscape-font-specification:LucidaSans-Italic;writing-mode:lr-tb;fill:#d22d2d;fill-opacity:1;fill-rule:nonzero;stroke:none"
           transform="matrix(1,0,0,-1,233.8,496)"><tspan
             id="tspan86"
             y="0"
             x="0"><a href="https://documentation.aimms.com/language-reference/non-procedural-language-components/set-set-element-and-string-expressions/index.html#expression">expression</a></tspan></text>
</g><path
         id="path90"
         style="fill:#ffffff;fill-opacity:1;fill-rule:nonzero;stroke:none"
         d="m 2968.2,5000 50,-20 v 40" /><path
         id="path92"
         style="fill:#ffffff;fill-opacity:1;fill-rule:nonzero;stroke:none"
         d="m 1660,5000 -20,-50 h 40" /><path
         id="path94"
         style="fill:#000000;fill-opacity:1;fill-rule:nonzero;stroke:none"
         d="m 3088.2,5000 -20,-50 h 40" /><path
         id="path96"
         style="fill:#000000;fill-opacity:1;fill-rule:nonzero;stroke:none"
         d="m 3208.2,5000 -50,20 v -40" /><g
         transform="scale(10)"
         id="g98"><text
           id="text102"
           style="font-variant:normal;font-size:12px;font-family:'Courier New';-inkscape-font-specification:LucidaSans-Typewriter;writing-mode:lr-tb;fill:#000000;fill-opacity:1;fill-rule:nonzero;stroke:none"
           transform="matrix(1,0,0,-1,325.82,496)"><tspan
             id="tspan100"
             y="0"
             x="0">ENDIF</tspan></text>
</g><path
         id="path104"
         style="fill:#ffffff;fill-opacity:1;fill-rule:nonzero;stroke:none"
         d="m 3668.2,5000 50,-20 v 40" /><path
         id="path106"
         style="fill:#000000;fill-opacity:1;fill-rule:nonzero;stroke:none"
         d="m 3788.2,5000 -50,20 v -40" /><path
         id="path108"
         style="fill:none;stroke:#000000;stroke-width:4;stroke-linecap:butt;stroke-linejoin:round;stroke-miterlimit:10;stroke-dasharray:none;stroke-opacity:1"
         d="m 0,5500 h 120 v 0 c 0,55.23 44.773,100 100,100 h 44 c 55.227,0 100,-44.77 100,-100 v 0 0 c 0,-55.23 -44.773,-100 -100,-100 h -44 c -55.227,0 -100,44.77 -100,100 v 0 m 244,0 h 120 m 0,0 v 0 h 120 v 100 H 1664.21 V 5500 5400 H 604 v 100 m 1060.24,0 h 120 v 0 c 0,55.23 44.77,100 100,100 h 188 c 55.22,0 100,-44.77 100,-100 v 0 0 c 0,-55.23 -44.78,-100 -100,-100 h -188 c -55.23,0 -100,44.77 -100,100 v 0 m 388,0 h 120 v 100 h 680.19 v -100 -100 h -680.19 v 100 m 680.2,0 h 120 M 484,5500 v 200 c 0,55.23 44.773,100 100,100 h 818.22 120 v 0 c 0,55.23 44.77,100 100,100 h 332 c 55.23,0 100,-44.77 100,-100 v 0 0 c 0,-55.23 -44.77,-100 -100,-100 h -332 c -55.23,0 -100,44.77 -100,100 v 0 m 532,0 h 120 818.22 c 55.22,0 100,-44.77 100,-100 v -200 h 120 M 1540,5000 h 120 m 0,0 v 0 h 120 v 0 c 0,55.23 44.77,100 100,100 h 188 c 55.23,0 100,-44.77 100,-100 v 0 0 c 0,-55.23 -44.77,-100 -100,-100 h -188 c -55.23,0 -100,44.77 -100,100 v 0 m 388,0 h 120 v 100 h 680.19 V 5000 4900 H 2288 v 100 m 680.2,0 h 120 m -1428.2,0 v -200 c 0,-55.23 44.77,-100 100,-100 h 554.1 120 554.1 c 55.23,0 100,44.77 100,100 v 200 h 120 v 0 c 0,55.23 44.77,100 100,100 h 260 c 55.23,0 100,-44.77 100,-100 v 0 0 c 0,-55.23 -44.77,-100 -100,-100 h -260 c -55.23,0 -100,44.77 -100,100 v 0 m 460,0 h 120" /></g></g></svg>