<?xml version="1.0" encoding="UTF-8" standalone="no"?>
<svg
   xmlns:dc="http://purl.org/dc/elements/1.1/"
   xmlns:cc="http://creativecommons.org/ns#"
   xmlns:rdf="http://www.w3.org/1999/02/22-rdf-syntax-ns#"
   xmlns:svg="http://www.w3.org/2000/svg"
   xmlns="http://www.w3.org/2000/svg"
   viewBox="0 0 603.66402 80.533333"
   height="80.533333"
   width="603.664"
   xml:space="preserve"
   id="svg2"
   version="1.1"><metadata
     id="metadata8"><rdf:RDF><cc:Work
         rdf:about=""><dc:format>image/svg+xml</dc:format><dc:type
           rdf:resource="http://purl.org/dc/dcmitype/StillImage" /></cc:Work></rdf:RDF></metadata><defs
     id="defs6" /><g
     transform="matrix(1.3333333,0,0,-1.3333333,0,306.93333)"
     id="g10"><g
       transform="scale(0.1)"
       id="g12"><path
         id="path14"
         style="fill:#000000;fill-opacity:1;fill-rule:nonzero;stroke:none"
         d="m 120,2000 -50,20 v -40" /><g
         transform="scale(10)"
         id="g16"><text
           id="text20"
           style="font-style:italic;font-variant:normal;font-size:11px;font-family:'Lucida Sans';-inkscape-font-specification:LucidaSans-Italic;writing-mode:lr-tb;fill:#d22d2d;fill-opacity:1;fill-rule:nonzero;stroke:none"
           transform="matrix(1,0,0,-1,17,196)"><tspan
             id="tspan18"
             y="0"
             x="0"><a href="https://documentation.aimms.com/language-reference/non-procedural-language-components/set-set-element-and-string-expressions/set-expressions.html#iterative-operator">iterative-operator</a></tspan></text>
</g><path
         id="path22"
         style="fill:#ffffff;fill-opacity:1;fill-rule:nonzero;stroke:none"
         d="m 1126.96,2000 50,-20 v 40" /><path
         id="path24"
         style="fill:#000000;fill-opacity:1;fill-rule:nonzero;stroke:none"
         d="m 1246.96,2000 -50,20 v -40" /><g
         transform="scale(10)"
         id="g26"><text
           id="text30"
           style="font-variant:normal;font-size:12px;font-family:'Courier New';-inkscape-font-specification:LucidaSans-Typewriter;writing-mode:lr-tb;fill:#000000;fill-opacity:1;fill-rule:nonzero;stroke:none"
           transform="matrix(1,0,0,-1,131.096,196)"><tspan
             id="tspan28"
             y="0"
             x="0">(</tspan></text>
</g><path
         id="path32"
         style="fill:#ffffff;fill-opacity:1;fill-rule:nonzero;stroke:none"
         d="m 1446.96,2000 50,-20 v 40" /><path
         id="path34"
         style="fill:#000000;fill-opacity:1;fill-rule:nonzero;stroke:none"
         d="m 1566.96,2000 -50,20 v -40" /><g
         transform="scale(10)"
         id="g36"><text
           id="text40"
           style="font-style:italic;font-variant:normal;font-size:11px;font-family:'Lucida Sans';-inkscape-font-specification:LucidaSans-Italic;writing-mode:lr-tb;fill:#d22d2d;fill-opacity:1;fill-rule:nonzero;stroke:none"
           transform="matrix(1,0,0,-1,161.696,196)"><tspan
             id="tspan38"
             y="0"
             x="0"><a href="https://documentation.aimms.com/language-reference/non-procedural-language-components/set-set-element-and-string-expressions/set-expressions.html#binding-domain">binding-domain</a></tspan></text>
</g><path
         id="path42"
         style="fill:#ffffff;fill-opacity:1;fill-rule:nonzero;stroke:none"
         d="m 2487.28,2000 50,-20 v 40" /><path
         id="path44"
         style="fill:#000000;fill-opacity:1;fill-rule:nonzero;stroke:none"
         d="m 2847.28,2000 -50,20 v -40" /><g
         transform="scale(10)"
         id="g46"><text
           id="text50"
           style="font-variant:normal;font-size:12px;font-family:'Courier New';-inkscape-font-specification:LucidaSans-Typewriter;writing-mode:lr-tb;fill:#000000;fill-opacity:1;fill-rule:nonzero;stroke:none"
           transform="matrix(1,0,0,-1,291.128,196)"><tspan
             id="tspan48"
             y="0"
             x="0">,</tspan></text>
</g><path
         id="path52"
         style="fill:#ffffff;fill-opacity:1;fill-rule:nonzero;stroke:none"
         d="m 3047.28,2000 50,-20 v 40" /><path
         id="path54"
         style="fill:#000000;fill-opacity:1;fill-rule:nonzero;stroke:none"
         d="m 3167.28,2000 -50,20 v -40" /><g
         transform="scale(10)"
         id="g56"><text
           id="text60"
           style="font-style:italic;font-variant:normal;font-size:11px;font-family:'Lucida Sans';-inkscape-font-specification:LucidaSans-Italic;writing-mode:lr-tb;fill:#d22d2d;fill-opacity:1;fill-rule:nonzero;stroke:none"
           transform="matrix(1,0,0,-1,321.728,196)"><tspan
             id="tspan58"
             y="0"
             x="0"><a href="https://documentation.aimms.com/language-reference/non-procedural-language-components/set-set-element-and-string-expressions/index.html#expression">expression</a></tspan></text>
</g><path
         id="path62"
         style="fill:#ffffff;fill-opacity:1;fill-rule:nonzero;stroke:none"
         d="m 3847.48,2000 50,-20 v 40" /><path
         id="path64"
         style="fill:#000000;fill-opacity:1;fill-rule:nonzero;stroke:none"
         d="m 2727.28,2000 20,50 h -40" /><path
         id="path66"
         style="fill:#ffffff;fill-opacity:1;fill-rule:nonzero;stroke:none"
         d="m 3967.48,2000 20,50 h -40" /><path
         id="path68"
         style="fill:#ffffff;fill-opacity:1;fill-rule:nonzero;stroke:none"
         d="m 2607.28,2000 -20,-50 h 40" /><path
         id="path70"
         style="fill:#000000;fill-opacity:1;fill-rule:nonzero;stroke:none"
         d="m 4087.48,2000 -20,-50 h 40" /><path
         id="path72"
         style="fill:#000000;fill-opacity:1;fill-rule:nonzero;stroke:none"
         d="m 4207.48,2000 -50,20 v -40" /><g
         transform="scale(10)"
         id="g74"><text
           id="text78"
           style="font-variant:normal;font-size:12px;font-family:'Courier New';-inkscape-font-specification:LucidaSans-Typewriter;writing-mode:lr-tb;fill:#000000;fill-opacity:1;fill-rule:nonzero;stroke:none"
           transform="matrix(1,0,0,-1,427.148,196)"><tspan
             id="tspan76"
             y="0"
             x="0">)</tspan></text>
</g><path
         id="path80"
         style="fill:#ffffff;fill-opacity:1;fill-rule:nonzero;stroke:none"
         d="m 4407.48,2000 50,-20 v 40" /><path
         id="path82"
         style="fill:#000000;fill-opacity:1;fill-rule:nonzero;stroke:none"
         d="m 4527.48,2000 -50,20 v -40" /><path
         id="path84"
         style="fill:none;stroke:#000000;stroke-width:4;stroke-linecap:butt;stroke-linejoin:round;stroke-miterlimit:10;stroke-dasharray:none;stroke-opacity:1"
         d="m 0,2000 h 120 v 100 H 1126.93 V 2000 1900 H 120 v 100 m 1006.96,0 h 120 v 0 c 0,55.23 44.77,100 100,100 v 0 c 55.23,0 100,-44.77 100,-100 v 0 0 c 0,-55.23 -44.77,-100 -100,-100 v 0 c -55.23,0 -100,44.77 -100,100 v 0 m 200,0 h 120 v 100 h 920.29 v -100 -100 h -920.29 v 100 m 920.32,0 h 120 m 0,0 v 0 h 120 m 0,0 v 0 h 120 v 0 c 0,55.23 44.77,100 100,100 v 0 c 55.23,0 100,-44.77 100,-100 v 0 0 c 0,-55.23 -44.77,-100 -100,-100 v 0 c -55.23,0 -100,44.77 -100,100 v 0 m 200,0 h 120 v 100 h 680.19 v -100 -100 h -680.19 v 100 m 680.2,0 h 120 m -1240.2,0 v 200 c 0,55.23 44.77,100 100,100 h 460.1 120 460.1 c 55.23,0 100,-44.77 100,-100 v -200 h 120 m -1480.2,0 v -200 c 0,-55.23 44.77,-100 100,-100 h 580.1 120 580.1 c 55.23,0 100,44.77 100,100 v 200 h 120 v 0 c 0,55.23 44.77,100 100,100 v 0 c 55.23,0 100,-44.77 100,-100 v 0 0 c 0,-55.23 -44.77,-100 -100,-100 v 0 c -55.23,0 -100,44.77 -100,100 v 0 m 200,0 h 120" /></g></g></svg>