<?xml version="1.0" encoding="UTF-8" standalone="no"?>
<svg
   xmlns:dc="http://purl.org/dc/elements/1.1/"
   xmlns:cc="http://creativecommons.org/ns#"
   xmlns:rdf="http://www.w3.org/1999/02/22-rdf-syntax-ns#"
   xmlns:svg="http://www.w3.org/2000/svg"
   xmlns="http://www.w3.org/2000/svg"
   viewBox="0 0 473.29735 147.19999"
   height="147.2"
   width="473.29733"
   xml:space="preserve"
   id="svg2"
   version="1.1"><metadata
     id="metadata8"><rdf:RDF><cc:Work
         rdf:about=""><dc:format>image/svg+xml</dc:format><dc:type
           rdf:resource="http://purl.org/dc/dcmitype/StillImage" /></cc:Work></rdf:RDF></metadata><defs
     id="defs6" /><g
     transform="matrix(1.3333333,0,0,-1.3333333,0,720.26665)"
     id="g10"><g
       transform="scale(0.1)"
       id="g12"><path
         id="path14"
         style="fill:#ffffff;fill-opacity:1;fill-rule:nonzero;stroke:none"
         d="m 200,5000 -20,-50 h 40" /><path
         id="path16"
         style="fill:#000000;fill-opacity:1;fill-rule:nonzero;stroke:none"
         d="m 400,4400 -50,20 v -40" /><g
         transform="scale(10)"
         id="g18"><text
           id="text22"
           style="font-variant:normal;font-size:12px;font-family:'Courier New';-inkscape-font-specification:LucidaSans-Typewriter;writing-mode:lr-tb;fill:#000000;fill-opacity:1;fill-rule:nonzero;stroke:none"
           transform="matrix(1,0,0,-1,46.4,436)"><tspan
             id="tspan20"
             y="0"
             x="0">(</tspan></text>
</g><path
         id="path24"
         style="fill:#ffffff;fill-opacity:1;fill-rule:nonzero;stroke:none"
         d="m 600,4400 50,-20 v 40" /><path
         id="path26"
         style="fill:#000000;fill-opacity:1;fill-rule:nonzero;stroke:none"
         d="m 800,4400 -50,20 v -40" /><g
         transform="scale(10)"
         id="g28"><text
           id="text32"
           style="font-style:italic;font-variant:normal;font-size:11px;font-family:'Lucida Sans';-inkscape-font-specification:LucidaSans-Italic;writing-mode:lr-tb;fill:#d22d2d;fill-opacity:1;fill-rule:nonzero;stroke:none"
           transform="matrix(1,0,0,-1,85,436)"><tspan
             id="tspan30"
             y="0"
             x="0"><a href="https://documentation.aimms.com/language-reference/data-communication-components/communicating-with-databases/the-databasetable-declaration.html#column-name">column-name</a></tspan></text>
</g><path
         id="path34"
         style="fill:#ffffff;fill-opacity:1;fill-rule:nonzero;stroke:none"
         d="m 1626.84,4400 50,-20 v 40" /><path
         id="path36"
         style="fill:#000000;fill-opacity:1;fill-rule:nonzero;stroke:none"
         d="m 700,4400 20,50 h -40" /><path
         id="path38"
         style="fill:#ffffff;fill-opacity:1;fill-rule:nonzero;stroke:none"
         d="m 1113.42,4700 -50,20 v -40" /><g
         transform="scale(10)"
         id="g40"><text
           id="text44"
           style="font-variant:normal;font-size:12px;font-family:'Courier New';-inkscape-font-specification:LucidaSans-Typewriter;writing-mode:lr-tb;fill:#000000;fill-opacity:1;fill-rule:nonzero;stroke:none"
           transform="matrix(1,0,0,-1,117.742,466)"><tspan
             id="tspan42"
             y="0"
             x="0">,</tspan></text>
</g><path
         id="path46"
         style="fill:#000000;fill-opacity:1;fill-rule:nonzero;stroke:none"
         d="m 1313.42,4700 50,-20 v 40" /><path
         id="path48"
         style="fill:#ffffff;fill-opacity:1;fill-rule:nonzero;stroke:none"
         d="m 1726.84,4400 20,50 h -40" /><path
         id="path50"
         style="fill:#000000;fill-opacity:1;fill-rule:nonzero;stroke:none"
         d="m 1826.84,4400 -50,20 v -40" /><g
         transform="scale(10)"
         id="g52"><text
           id="text56"
           style="font-variant:normal;font-size:12px;font-family:'Courier New';-inkscape-font-specification:LucidaSans-Typewriter;writing-mode:lr-tb;fill:#000000;fill-opacity:1;fill-rule:nonzero;stroke:none"
           transform="matrix(1,0,0,-1,189.084,436)"><tspan
             id="tspan54"
             y="0"
             x="0">)</tspan></text>
</g><path
         id="path58"
         style="fill:#ffffff;fill-opacity:1;fill-rule:nonzero;stroke:none"
         d="m 2026.84,4400 50,-20 v 40" /><path
         id="path60"
         style="fill:#000000;fill-opacity:1;fill-rule:nonzero;stroke:none"
         d="m 2226.84,5000 -20,-50 h 40" /><path
         id="path62"
         style="fill:#000000;fill-opacity:1;fill-rule:nonzero;stroke:none"
         d="m 800.004,5000 -50,20 v -40" /><g
         transform="scale(10)"
         id="g64"><text
           id="text68"
           style="font-style:italic;font-variant:normal;font-size:11px;font-family:'Lucida Sans';-inkscape-font-specification:LucidaSans-Italic;writing-mode:lr-tb;fill:#d22d2d;fill-opacity:1;fill-rule:nonzero;stroke:none"
           transform="matrix(1,0,0,-1,85,496)"><tspan
             id="tspan66"
             y="0"
             x="0"><a href="https://documentation.aimms.com/language-reference/data-communication-components/communicating-with-databases/the-databasetable-declaration.html#column-name">column-name</a></tspan></text>
</g><path
         id="path70"
         style="fill:#ffffff;fill-opacity:1;fill-rule:nonzero;stroke:none"
         d="m 1626.84,5000 50,-20 v 40" /><path
         id="path72"
         style="fill:#000000;fill-opacity:1;fill-rule:nonzero;stroke:none"
         d="m 2326.84,5000 -50,20 v -40" /><g
         transform="scale(10)"
         id="g74"><text
           id="text78"
           style="font-variant:normal;font-size:12px;font-family:'Courier New';-inkscape-font-specification:LucidaSans-Typewriter;writing-mode:lr-tb;fill:#000000;fill-opacity:1;fill-rule:nonzero;stroke:none"
           transform="matrix(1,0,0,-1,237.684,496)"><tspan
             id="tspan76"
             y="0"
             x="0">--&gt;</tspan></text>
</g><path
         id="path80"
         style="fill:#ffffff;fill-opacity:1;fill-rule:nonzero;stroke:none"
         d="m 2642.84,5000 50,-20 v 40" /><path
         id="path82"
         style="fill:#000000;fill-opacity:1;fill-rule:nonzero;stroke:none"
         d="m 2742.84,5000 -50,20 v -40" /><g
         transform="scale(10)"
         id="g84"><text
           id="text88"
           style="font-style:italic;font-variant:normal;font-size:11px;font-family:'Lucida Sans';-inkscape-font-specification:LucidaSans-Italic;writing-mode:lr-tb;fill:#d22d2d;fill-opacity:1;fill-rule:nonzero;stroke:none"
           transform="matrix(1,0,0,-1,279.284,496)"><tspan
             id="tspan86"
             y="0"
             x="0"><a href="https://documentation.aimms.com/language-reference/non-procedural-language-components/numerical-and-logical-expressions/numerical-expressions.html#reference">reference</a></tspan></text>
</g><path
         id="path90"
         style="fill:#ffffff;fill-opacity:1;fill-rule:nonzero;stroke:none"
         d="m 3349.72,5000 50,-20 v 40" /><path
         id="path92"
         style="fill:#000000;fill-opacity:1;fill-rule:nonzero;stroke:none"
         d="m 100,5000 20,50 H 80" /><path
         id="path94"
         style="fill:#ffffff;fill-opacity:1;fill-rule:nonzero;stroke:none"
         d="m 1674.86,5300 -50,20 v -40" /><g
         transform="scale(10)"
         id="g96"><text
           id="text100"
           style="font-variant:normal;font-size:12px;font-family:'Courier New';-inkscape-font-specification:LucidaSans-Typewriter;writing-mode:lr-tb;fill:#000000;fill-opacity:1;fill-rule:nonzero;stroke:none"
           transform="matrix(1,0,0,-1,173.886,526)"><tspan
             id="tspan98"
             y="0"
             x="0">,</tspan></text>
</g><path
         id="path102"
         style="fill:#000000;fill-opacity:1;fill-rule:nonzero;stroke:none"
         d="m 1874.86,5300 50,-20 v 40" /><path
         id="path104"
         style="fill:#ffffff;fill-opacity:1;fill-rule:nonzero;stroke:none"
         d="m 3449.73,5000 20,50 h -40" /><path
         id="path106"
         style="fill:#000000;fill-opacity:1;fill-rule:nonzero;stroke:none"
         d="m 3549.73,5000 -50,20 v -40" /><path
         id="path108"
         style="fill:none;stroke:#000000;stroke-width:4;stroke-linecap:butt;stroke-linejoin:round;stroke-miterlimit:10;stroke-dasharray:none;stroke-opacity:1"
         d="m 0,5000 h 100 m 0,0 v 0 h 100 m 0,0 v -500 c 0,-55.23 44.773,-100 100,-100 v 0 h 100 v 0 c 0,55.23 44.773,100 100,100 v 0 c 55.227,0 100,-44.77 100,-100 v 0 0 c 0,-55.23 -44.773,-100 -100,-100 v 0 c -55.227,0 -100,44.77 -100,100 v 0 m 200,0 h 100 m 0,0 v 0 h 100 v 100 h 826.82 V 4400 4300 H 800 v 100 m 826.84,0 h 100 M 700,4400 v 200 c 0,55.23 44.773,100 100,100 h 213.42 100 v 0 c 0,55.23 44.78,100 100,100 v 0 c 55.23,0 100,-44.77 100,-100 v 0 0 c 0,-55.23 -44.77,-100 -100,-100 v 0 c -55.22,0 -100,44.77 -100,100 v 0 m 200,0 h 100 213.42 c 55.23,0 100,-44.77 100,-100 v -200 h 100 v 0 c 0,55.23 44.78,100 100,100 v 0 c 55.23,0 100,-44.77 100,-100 v 0 0 c 0,-55.23 -44.77,-100 -100,-100 v 0 c -55.22,0 -100,44.77 -100,100 v 0 m 200,0 h 100 v 0 c 55.23,0 100,44.77 100,100 v 500 M 200,5000 h 100 400 100 v 100 h 826.82 V 5000 4900 H 800 v 100 m 826.84,0 h 100 500 100 v 0 c 0,55.23 44.78,100 100,100 h 116 c 55.23,0 100,-44.77 100,-100 v 0 0 c 0,-55.23 -44.77,-100 -100,-100 h -116 c -55.22,0 -100,44.77 -100,100 v 0 m 316,0 h 100 v 100 h 606.87 v -100 -100 h -606.87 v 100 m 606.88,0 h 100 M 100,5000 v 200 c 0,55.23 44.773,100 100,100 h 1374.86 100 v 0 c 0,55.23 44.78,100 100,100 v 0 c 55.23,0 100,-44.77 100,-100 v 0 0 c 0,-55.23 -44.77,-100 -100,-100 v 0 c -55.22,0 -100,44.77 -100,100 v 0 m 200,0 h 100 1374.87 c 55.22,0 100,-44.77 100,-100 v -200 h 100" /></g></g></svg>