<?xml version="1.0" encoding="UTF-8" standalone="no"?>
<svg
   xmlns:dc="http://purl.org/dc/elements/1.1/"
   xmlns:cc="http://creativecommons.org/ns#"
   xmlns:rdf="http://www.w3.org/1999/02/22-rdf-syntax-ns#"
   xmlns:svg="http://www.w3.org/2000/svg"
   xmlns="http://www.w3.org/2000/svg"
   viewBox="0 0 398.99202 67.199997"
   height="67.199997"
   width="398.992"
   xml:space="preserve"
   id="svg2"
   version="1.1"><metadata
     id="metadata8"><rdf:RDF><cc:Work
         rdf:about=""><dc:format>image/svg+xml</dc:format><dc:type
           rdf:resource="http://purl.org/dc/dcmitype/StillImage" /></cc:Work></rdf:RDF></metadata><defs
     id="defs6" /><g
     transform="matrix(1.3333333,0,0,-1.3333333,0,413.59999)"
     id="g10"><g
       transform="scale(0.1)"
       id="g12"><path
         id="path14"
         style="fill:#000000;fill-opacity:1;fill-rule:nonzero;stroke:none"
         d="m 120,3000 -50,20 v -40" /><g
         transform="scale(10)"
         id="g16"><text
           id="text20"
           style="font-style:italic;font-variant:normal;font-size:11px;font-family:'Lucida Sans';-inkscape-font-specification:LucidaSans-Italic;writing-mode:lr-tb;fill:#d22d2d;fill-opacity:1;fill-rule:nonzero;stroke:none"
           transform="matrix(1,0,0,-1,17,296)"><tspan
             id="tspan18"
             y="0"
             x="0"><a href="https://documentation.aimms.com/language-reference/non-procedural-language-components/set-set-element-and-string-expressions/index.html#expression">expression</a></tspan></text>
</g><path
         id="path22"
         style="fill:#ffffff;fill-opacity:1;fill-rule:nonzero;stroke:none"
         d="m 800.199,3000 50,-20 v 40" /><path
         id="path24"
         style="fill:#000000;fill-opacity:1;fill-rule:nonzero;stroke:none"
         d="m 1040.2,3000 -50.001,20 v -40" /><g
         transform="scale(10)"
         id="g26"><text
           id="text30"
           style="font-variant:normal;font-size:12px;font-family:'Courier New';-inkscape-font-specification:LucidaSans-Typewriter;writing-mode:lr-tb;fill:#000000;fill-opacity:1;fill-rule:nonzero;stroke:none"
           transform="matrix(1,0,0,-1,109.02,296)"><tspan
             id="tspan28"
             y="0"
             x="0">ONLYIF</tspan></text>
</g><path
         id="path32"
         style="fill:#ffffff;fill-opacity:1;fill-rule:nonzero;stroke:none"
         d="m 1572.2,3000 50,-20 v 40" /><path
         id="path34"
         style="fill:#ffffff;fill-opacity:1;fill-rule:nonzero;stroke:none"
         d="m 920.199,3000 -20,-50 h 40" /><path
         id="path36"
         style="fill:#000000;fill-opacity:1;fill-rule:nonzero;stroke:none"
         d="m 1206.2,2700 -50,20 v -40" /><g
         transform="scale(10)"
         id="g38"><text
           id="text42"
           style="font-variant:normal;font-size:12px;font-family:'Courier New';-inkscape-font-specification:LucidaSans-Typewriter;writing-mode:lr-tb;fill:#000000;fill-opacity:1;fill-rule:nonzero;stroke:none"
           transform="matrix(1,0,0,-1,127.02,266)"><tspan
             id="tspan40"
             y="0"
             x="0">$</tspan></text>
</g><path
         id="path44"
         style="fill:#ffffff;fill-opacity:1;fill-rule:nonzero;stroke:none"
         d="m 1406.2,2700 50,-20 v 40" /><path
         id="path46"
         style="fill:#000000;fill-opacity:1;fill-rule:nonzero;stroke:none"
         d="m 1692.2,3000 -20,-50 h 40" /><path
         id="path48"
         style="fill:#000000;fill-opacity:1;fill-rule:nonzero;stroke:none"
         d="m 1812.2,3000 -50,20 v -40" /><g
         transform="scale(10)"
         id="g50"><text
           id="text54"
           style="font-style:italic;font-variant:normal;font-size:11px;font-family:'Lucida Sans';-inkscape-font-specification:LucidaSans-Italic;writing-mode:lr-tb;fill:#d22d2d;fill-opacity:1;fill-rule:nonzero;stroke:none"
           transform="matrix(1,0,0,-1,186.22,296)"><tspan
             id="tspan52"
             y="0"
             x="0"><a href="https://documentation.aimms.com/language-reference/non-procedural-language-components/numerical-and-logical-expressions/logical-expressions.html#logical-expression">logical-expression</a></tspan></text>
</g><path
         id="path56"
         style="fill:#ffffff;fill-opacity:1;fill-rule:nonzero;stroke:none"
         d="m 2872.44,3000 50,-20 v 40" /><path
         id="path58"
         style="fill:#000000;fill-opacity:1;fill-rule:nonzero;stroke:none"
         d="m 2992.44,3000 -50,20 v -40" /><path
         id="path60"
         style="fill:none;stroke:#000000;stroke-width:4;stroke-linecap:butt;stroke-linejoin:round;stroke-miterlimit:10;stroke-dasharray:none;stroke-opacity:1"
         d="m 0,3000 h 120 v 100 H 800.188 V 3000 2900 H 120 v 100 m 680.199,0 h 120 m 0,0 v 0 H 1040.2 v 0 c 0,55.23 44.77,100 100,100 h 332 c 55.23,0 100,-44.77 100,-100 v 0 0 c 0,-55.23 -44.77,-100 -100,-100 h -332 c -55.23,0 -100,44.77 -100,100 v 0 m 532,0 h 120 m -772.001,0 v -200 c 0,-55.23 44.774,-100 100.001,-100 h 66 120 v 0 c 0,55.23 44.77,100 100,100 v 0 c 55.23,0 100,-44.77 100,-100 v 0 0 c 0,-55.23 -44.77,-100 -100,-100 v 0 c -55.23,0 -100,44.77 -100,100 v 0 m 200,0 h 120 66 c 55.23,0 100,44.77 100,100 v 200 h 120 v 100 H 2872.41 V 3000 2900 H 1812.2 v 100 m 1060.24,0 h 120" /></g></g></svg>